…
  clean_names() |> 
  
  mutate(service_provider = to_snake_case(as.character(service_provider))) |>  
  
  mutate(placement = to_snake_case(as.character(placement))) |> 
  
  separate(placement, into = c("location", "facility_type")) |> 
  
  select(-pde_completed_date_time)
  

print(timby_juvenile_general_information)
```

    ## # A tibble: 68 × 4
    ##    juvenileid location      facility_type service_provider
    ##         <dbl> <chr>         <chr>         <chr>           
    ##  1     502065 eastman       ydc           psychiatrist    
    ##  2     507211 milledgeville ydc           psychologist    
    ##  3     509322 atlanta       ydc           psychiatrist    
    ##  4     524787 atlanta       ydc           psychiatrist    
    ##  5     530297 eastman       ydc           psychiatrist    
    ##  6     536581 atlanta       ydc           psychologist    
    ##  7     537118 atlanta       ydc           psychologist    
    ##  8     542732 dekalb        rydc          psychiatrist    
    ##  9     543361 metro         rydc          psychiatrist    
    ## 10     545353 columbus      rydc          psychiatrist    
    ## # ℹ 58 more rows
…
